^C:\DOCUMENTS AND SETTINGS\HADES\MY DOCUMENTS\SHARPDEVELOP PROJECTS\DEMO3LAYER\DEMO3LAYER\DEFAULT.RESX
C:\WINDOWS\MICROSOFT.NET\FRAMEWORK\V2.0.50727\MSCORRC.DLL
C:\DOCUMENTS AND SETTINGS\HADES\MY DOCUMENTS\SHARPDEVELOP PROJECTS\DEMO3LAYER\DEMO3LAYER\RESOURCES\1324803567_SEARCH_16.PNG
C:\DOCUMENTS AND SETTINGS\HADES\MY DOCUMENTS\SHARPDEVELOP PROJECTS\DEMO3LAYER\DEMO3LAYER\RESOURCES\1324803705_DOWNLOAD_MANAGER.PNG
C:\DOCUMENTS AND SETTINGS\HADES\MY DOCUMENTS\SHARPDEVELOP PROJECTS\DEMO3LAYER\DEMO3LAYER\RESOURCES\1324804068_DISK.PNG
C:\DOCUMENTS AND SETTINGS\HADES\MY DOCUMENTS\SHARPDEVELOP PROJECTS\DEMO3LAYER\DEMO3LAYER\RESOURCES\1324821687_ADD.PNG
^C:\DOCUMENTS AND SETTINGS\HADES\MY DOCUMENTS\SHARPDEVELOP PROJECTS\DEMO3LAYER\DEMO3LAYER\GUI\FRPRODUCT.RESX
C:\WINDOWS\FONTS\MICROSS.TTF
^C:\DOCUMENTS AND SETTINGS\HADES\MY DOCUMENTS\SHARPDEVELOP PROJECTS\DEMO3LAYER\DEMO3LAYER\GUI\FRPRODUCTLIST.RESX
^C:\DOCUMENTS AND SETTINGS\HADES\MY DOCUMENTS\SHARPDEVELOP PROJECTS\DEMO3LAYER\DEMO3LAYER\ERROR.RESX
^C:\DOCUMENTS AND SETTINGS\HADES\MY DOCUMENTS\SHARPDEVELOP PROJECTS\DEMO3LAYER\DEMO3LAYER\GUI\FRMAIN.RESX
^C:\DOCUMENTS AND SETTINGS\HADES\MY DOCUMENTS\SHARPDEVELOP PROJECTS\DEMO3LAYER\DEMO3LAYER\GUI\FRORDER.RESX
